{
  "iisSettings": {
    "windowsAuthentication": false,
    "anonymousAuthentication": true,
    "iisExpress": {
      "applicationUrl": "http://localhost:52160",
      "sslPort": 44386
    }
  },
  "$schema": "http://json.schemastore.org/launchsettings.json",
  "profiles": {
    "IIS Express": {
      "commandName": "IISExpress",
      "launchBrowser": true,
      "launchUrl": "weatherforecast",
      "environmentVariables": {
        "ASPNETCORE_LAUNCHPROFILE": "LocalHTTPS",
        "ASPNETCORE_ENVIRONMENT": "Development"
      }
    },
    "Endor.Search.web": {
      "commandName": "Project",
      "launchBrowser": true,
      "launchUrl": "weatherforecast",
      "environmentVariables": {
        "ASPNETCORE_ENVIRONMENT": "Development"
      },
      "applicationUrl": "https://localhost:5001;http://localhost:5000"
    },
    "LocalHTTPS": {
      "commandName": "Project",
      "environmentVariables": {
        "ASPNETCORE_LAUNCHPROFILE": "LocalHTTPS",
        "ASPNETCORE_ENVIRONMENT": "Development"
      },
      "applicationUrl": "https://endorsearch.localcyriousdevelopment.com:5005"
    }
  }
}